

Initializing Gaudi ApplicationMgr using job opts ../share/
ApplicationMgr    SUCCESS 
====================================================================================================================================
                                                   Welcome to ApplicationMgr (GaudiCoreSvc v39r0)
                                          running on login04.af.uchicago.edu on Sat Oct 12 23:57:33 2024
====================================================================================================================================
ApplicationMgr       INFO Application Manager Configured successfully
EventLoopMgr      WARNING Unable to locate service "EventSelector" 
EventLoopMgr      WARNING No events will be processed from external input.
ApplicationMgr       INFO Application Manager Initialized successfully
ApplicationMgr Ready
FPGATrackSimMod...   INFO Allocating map for geometry ATLAS-P2-RUN4-03-00-00 diskIndex size=9
Package.UserCode     INFO Using 9 logical layers and 10 coordinates
